Pokémon Type Prediction Analysis
…
enet_grid

## # A tibble: 100 × 2
##    penalty mixture
##      <dbl>   <dbl>
##  1   0.01        0
##  2   0.342       0
##  3   0.674       0
##  4   1.01        0
##  5   1.34        0
##  6   1.67        0
##  7   2.00        0
##  8   2.34        0
##  9   2.67        0
## 10   3           0
## # ℹ 90 more rows
…
rf_grid

## # A tibble: 512 × 3
##     mtry trees min_n
##    <int> <int> <int>
##  1     1   100     2
##  2     2   100     2
##  3     3   100     2
##  4     4   100     2
##  5     5   100     2
##  6     6   100     2
##  7     7   100     2
##  8     8   100     2
##  9     1   228     2
## 10     2   228     2
## # ℹ 502 more rows
…
